%YAML 1.1
%TAG !u! tag:unity3d.com,2011:
--- !u!114 &11400000
MonoBehaviour:
  m_ObjectHideFlags: 0
  m_CorrespondingSourceObject: {fileID: 0}
  m_PrefabInstance: {fileID: 0}
  m_PrefabAsset: {fileID: 0}
  m_GameObject: {fileID: 0}
  m_Enabled: 1
  m_EditorHideFlags: 0
  m_Script: {fileID: 11500000, guid: a75d51db69438c241b0d9625e336d9c9, type: 3}
  m_Name: New Meeting Data
  m_EditorClassIdentifier: 
  script: {fileID: 4900000, guid: e8c50be7ff9952b4a82c213eb2168119, type: 3}
