%YAML 1.1
%TAG !u! tag:unity3d.com,2011:
--- !u!114 &11400000
MonoBehaviour:
  m_ObjectHideFlags: 0
  m_CorrespondingSourceObject: {fileID: 0}
  m_PrefabInstance: {fileID: 0}
  m_PrefabAsset: {fileID: 0}
  m_GameObject: {fileID: 0}
  m_Enabled: 1
  m_EditorHideFlags: 0
  m_Script: {fileID: 11500000, guid: c1bd758aa3b0a234e91a4c438dbbfbe6, type: 3}
  m_Name: Radley Schott
  m_EditorClassIdentifier: 
  employeeName: 
  age: 26
  idImage: {fileID: 21300000, guid: 75b8650e8fa2c294bb31a5e976ea8c8b, type: 3}
  skillLevel: 2
  availableTasks:
  - {fileID: 11400000, guid: 31022b413d7cf89409f6a26e961fdd86, type: 2}
  available: 0
  currentTasks: []
