%YAML 1.1
%TAG !u! tag:unity3d.com,2011:
--- !u!114 &11400000
MonoBehaviour:
  m_ObjectHideFlags: 0
  m_CorrespondingSourceObject: {fileID: 0}
  m_PrefabInstance: {fileID: 0}
  m_PrefabAsset: {fileID: 0}
  m_GameObject: {fileID: 0}
  m_Enabled: 1
  m_EditorHideFlags: 0
  m_Script: {fileID: 11500000, guid: c6bc5a264541bda41becef968bc20ed5, type: 3}
  m_Name: Office
  m_EditorClassIdentifier: 
  numberDesks: 4
  employees:
  - {fileID: 11400000, guid: f6e5e1411acdd9c44a1ff8435707c7e2, type: 2}
